…
#### Residuals


```r
sim1 <- sim1 %>%
  add_residuals(sim1_mod)

sim1
```

```
## # A tibble: 30 x 3
##        x     y    resid
##    <int> <dbl>    <dbl>
##  1     1  4.20 -2.07   
##  2     1  7.51  1.24   
##  3     1  2.13 -4.15   
##  4     2  8.99  0.665  
##  5     2 10.2   1.92   
##  6     2 11.3   2.97   
##  7     3  7.36 -3.02   
##  8     3 10.5   0.130  
##  9     3 10.5   0.136  
## 10     4 12.4   0.00763
## # ... with 20 more rows
```
…
```r
mod1 <- lm(y ~ x1 + x2, data = sim3)
mod2 <- lm(y ~ x1 * x2, data = sim3)

grid <- sim3 %>%
  data_grid(x1, x2) %>%
  gather_predictions(mod1, mod2)

grid
```

```
## # A tibble: 80 x 4
##    model    x1 x2     pred
##    <chr> <int> <fct> <dbl>
##  1 mod1      1 a      1.67
##  2 mod1      1 b      4.56
##  3 mod1      1 c      6.48
##  4 mod1      1 d      4.03
##  5 mod1      2 a      1.48
##  6 mod1      2 b      4.37
##  7 mod1      2 c      6.28
##  8 mod1      2 d      3.84
##  9 mod1      3 a      1.28
## 10 mod1      3 b      4.17
## # ... with 70 more rows
```
…
```r
mod1 <- lm(y ~ x1 + x2, data = sim4)
mod2 <- lm(y ~ x1 * x2, data = sim4)

grid <- sim4 %>% 
  data_grid(
    x1 = seq_range(x1, 5), 
    x2 = seq_range(x2, 5) 
  ) %>% 
  gather_predictions(mod1, mod2)
grid
```

```
## # A tibble: 50 x 4
##    model     x1     x2   pred
##    <chr>  <dbl>  <dbl>  <dbl>
##  1 mod1  -1.00  -1.00   0.996
##  2 mod1  -1.00  -0.500 -0.395
##  3 mod1  -1.00   0     -1.79 
##  4 mod1  -1.00   0.500 -3.18 
##  5 mod1  -1.00   1.00  -4.57 
##  6 mod1  -0.500 -1.00   1.91 
##  7 mod1  -0.500 -0.500  0.516
##  8 mod1  -0.500  0     -0.875
##  9 mod1  -0.500  0.500 -2.27 
## 10 mod1  -0.500  1.00  -3.66 
## # ... with 40 more rows
```
…
## Flight Data
What affects the number of daily flights?


```r
daily <- flights %>%
  mutate(date = make_date(year, month, day), wday = wday(date, label = TRUE)) %>%
  group_by(date, wday) %>%
  summarise(n = n())

daily
```

```
## # A tibble: 365 x 3
## # Groups:   date [?]
##    date       wday      n
##    <date>     <ord> <int>
##  1 2013-01-01 Tue     842
##  2 2013-01-02 Wed     943
##  3 2013-01-03 Thu     914
##  4 2013-01-04 Fri     915
##  5 2013-01-05 Sat     720
##  6 2013-01-06 Sun     832
##  7 2013-01-07 Mon     933
##  8 2013-01-08 Tue     899
##  9 2013-01-09 Wed     902
## 10 2013-01-10 Thu     932
## # ... with 355 more rows
```
…
